tw_id_company;users_ids;c
43;13,122,1545;3
1176;1736,1825;2
1314;1687,169;2
1559;1687,169;2
1775;1736,1825;2
1999;369,1654;2
2110;663,1567;2
2333;817,1502;2
2748;674,1526;2
2828;671,1586;2
3724;1248,806;2
6896;557,15;2
6966;469,146;2
6978;364,1657,8047;3
7037;401,52;2
7108;1013,13;2
7113;67,13;2
7137;1014,13;2
7142;787,1578;2
7364;569,1708;2
7410;512,55;2
7521;104;2
7608;534,842;2
7639;276,1426;2
8233;84,101;2
8246;719,1695;2
8266;1326,1390,1720;3
8292;1694,1696;2
8350;824,1688;2
8411;666,68;2
8436;527,55;2
8438;1405,55;2
8567;226,165;2
8756;671,1586;2
8849;815,1801,0;3
8945;1414,1554;2
9632;1647,1697;2
10320;4,1738;2
10356;104;2
10384;535,842;2
10417;23,1655;2
10492;67,13;2
10689;327,272,1505;3
10690;327,1505;2
10721;125,17;2
10722;170,125;2
10723;60,1729;2
10865;695,1414,1554;3
10871;84,1554;2
11350;827,1377;2
11376;1142,1455;2
11677;620,1464;2
11680;620,1461;2
11693;1023,1517;2
11816;507,1633;2
12018;988,1683;2
12542;1609,662;2
12647;1149,1566;2
12769;609,1451;2
12791;410,641,1632;3
12831;410,641,1632;3
12859;988,1683;2
13453;193,1399;2
13529;589,1535,1760;3
13622;13,1374,1;3
15455;14,1709;2
15456;14,1709;2
15524;134,245;2
15531;155,178;2
15540;170,125;2
15545;185,1565;2
15553;204,1498;2
15640;480,225,1821,1820;4
15651;507,1633;2
15661;534,842;2
15672;564,558;2
15692;671,1586;2
15698;690,1398;2
15842;1339,1607;2
16214;1393,417;2
16444;988,1683;2
16445;988,1683;2
16648;1414,1739;2
17190;1473,1783;2
17302;1479,13;2
17350;988,1683;2
17968;935,1658;2
18497;1543,1818;2
18597;507,1633;2
19479;1590,1711;2
20076;1630,85;2
20099;635;2
20284;1651,1718;2
26713;827,8041;2
27883;1843,8057;2