<svg width="8" height="8" viewBox="0 0 8 8">
	<path d="M1064.4,193l2.32,2.315a0.987,0.987,0,0,1,0,1.4,1,1,0,0,1-1.41,0L1063,194.4l-2.31,2.315a1,1,0,0,1-1.41,0,0.987,0.987,0,0,1,0-1.4L1061.6,193l-2.32-2.314a0.989,0.989,0,0,1,0-1.4,1,1,0,0,1,1.41,0l2.31,2.315,2.31-2.315a1,1,0,0,1,1.41,0,0.989,0.989,0,0,1,0,1.4Z" transform="translate(-1059 -189)"/>
</svg>
