<svg id="Search_big_mask.svg" xmlns="http://www.w3.org/2000/svg" width="21" height="21" viewBox="0 0 21 21">
  <defs>
    <style>
      .cls-1 {
        fill: #fff;
        fill-rule: evenodd;
      }
    </style>
  </defs>
  <path id="Rounded_Rectangle_106" data-name="Rounded Rectangle 106" class="cls-1" d="M1570,111h21v21h-21V111Zm20.71,20.709a1,1,0,0,1-1.42,0l-4.68-4.677a9.069,9.069,0,1,1,1.42-1.427l4.68,4.678A1,1,0,0,1,1590.71,131.709ZM1579,113a7,7,0,1,0,7,7A7,7,0,0,0,1579,113Z" transform="translate(-1570 -111)"/>
</svg>
